%YAML 1.1
%TAG !u! tag:unity3d.com,2011:
--- !u!21 &2100000
Material:
  serializedVersion: 3
  m_ObjectHideFlags: 0
  m_PrefabParentObject: {fileID: 0}
  m_PrefabInternal: {fileID: 0}
  m_Name: WaterParticles
  m_Shader: {fileID: 4800000, guid: f5d8937d396884f53b6575b763788742, type: 3}
  m_ShaderKeywords: []
  m_CustomRenderQueue: -1
  m_SavedProperties:
    serializedVersion: 2
    m_TexEnvs:
      data:
        first:
          name: _MainTex
        second:
          m_Texture: {fileID: 2800000, guid: 2eeb4b0ed1d4d439db8bee6c06a59c9c, type: 3}
          m_Scale: {x: 1, y: 1}
          m_Offset: {x: 0, y: 0}
      data:
        first:
          name: _DetailTex
        second:
          m_Texture: {fileID: 2800000, guid: ccc59d9ac01bf4e52a751189e6b59931, type: 3}
          m_Scale: {x: 1, y: 1}
          m_Offset: {x: 0, y: 0}
      data:
        first:
          name: _BaseTex
        second:
          m_Texture: {fileID: 2800000, guid: ccc59d9ac01bf4e52a751189e6b59931, type: 3}
          m_Scale: {x: 240, y: 240}
          m_Offset: {x: 0, y: 0}
    m_Floats:
      data:
        first:
          name: _Cutoff
        second: .433928549
      data:
        first:
          name: _Stencil
        second: 0
      data:
        first:
          name: _StencilReadMask
        second: 255
      data:
        first:
          name: _StencilWriteMask
        second: 255
      data:
        first:
          name: _StencilComp
        second: 8
      data:
        first:
          name: _StencilOp
        second: 0
      data:
        first:
          name: _ColorMask
        second: 15
      data:
        first:
          name: _Strength
        second: .200000003
      data:
        first:
          name: _Weight
        second: .660714269
      data:
        first:
          name: _Dist
        second: 1
    m_Colors:
      data:
        first:
          name: _Color
        second: {r: 1, g: 1, b: 1, a: 1}
      data:
        first:
          name: _Duration
        second: {r: 1, g: .5, b: 3, a: 5}
      data:
        first:
          name: _Disp
        second: {r: 7.98000002, g: 0, b: 0, a: 0}
