%YAML 1.1
%TAG !u! tag:unity3d.com,2011:
--- !u!21 &2100000
Material:
  serializedVersion: 3
  m_ObjectHideFlags: 0
  m_PrefabParentObject: {fileID: 0}
  m_PrefabInternal: {fileID: 0}
  m_Name: BWToCoolGrays
  m_Shader: {fileID: 4800000, guid: 73cae9dbba75e4b3e90a42d5da3bb19e, type: 3}
  m_ShaderKeywords:
  - PIXELSNAP_ON
  m_CustomRenderQueue: -1
  m_SavedProperties:
    serializedVersion: 2
    m_TexEnvs:
      data:
        first:
          name: _MainTex
        second:
          m_Texture: {fileID: 0}
          m_Scale: {x: 1, y: 1}
          m_Offset: {x: 0, y: 0}
    m_Floats:
      data:
        first:
          name: PixelSnap
        second: 1
    m_Colors:
      data:
        first:
          name: _Color
        second: {r: .913725495, g: .949019611, b: .937254906, a: 1}
      data:
        first:
          name: _WhiteColor
        second: {r: .913725495, g: .949019611, b: .937254906, a: 1}
      data:
        first:
          name: _BlackColor
        second: {r: .32553634, g: .329411775, b: .327501059, a: 1}
