%YAML 1.1
%TAG !u! tag:unity3d.com,2011:
--- !u!74 &7400000
AnimationClip:
  m_ObjectHideFlags: 0
  m_PrefabParentObject: {fileID: 0}
  m_PrefabInternal: {fileID: 0}
  m_Name: Normal
  serializedVersion: 4
  m_AnimationType: 2
  m_Compressed: 0
  m_UseHighQualityCurve: 1
  m_RotationCurves: []
  m_CompressedRotationCurves: []
  m_PositionCurves: []
  m_ScaleCurves:
  - curve:
      serializedVersion: 2
      m_Curve:
      - time: 0
        value: {x: 1, y: 1, z: 1}
        inSlope: {x: 0, y: 0, z: 0}
        outSlope: {x: 0, y: 0, z: 0}
        tangentMode: 12
      - time: .166666672
        value: {x: 1, y: 1, z: 1}
        inSlope: {x: 0, y: 0, z: 0}
        outSlope: {x: 0, y: 0, z: 0}
        tangentMode: 7628903
      m_PreInfinity: 2
      m_PostInfinity: 2
    path: Label
  - curve:
      serializedVersion: 2
      m_Curve:
      - time: 0
        value: {x: 1, y: 1, z: 1}
        inSlope: {x: 0, y: 0, z: 0}
        outSlope: {x: 0, y: 0, z: 0}
        tangentMode: 0
      - time: .166666672
        value: {x: 1, y: 1, z: 1}
        inSlope: {x: 0, y: 0, z: 0}
        outSlope: {x: 0, y: 0, z: 0}
        tangentMode: 98
      m_PreInfinity: 2
      m_PostInfinity: 2
    path: Numbers
  m_FloatCurves:
  - curve:
      serializedVersion: 2
      m_Curve:
      - time: 0
        value: 1
        inSlope: 0
        outSlope: 0
        tangentMode: 10
      - time: .166666672
        value: 1
        inSlope: 0
        outSlope: 0
        tangentMode: 10
      m_PreInfinity: 2
      m_PostInfinity: 2
    attribute: m_Color.r
    path: Label
    classID: 114
    script: {fileID: 708705254, guid: f5f67c52d1564df4a8936ccd202a3bd8, type: 3}
  - curve:
      serializedVersion: 2
      m_Curve:
      - time: 0
        value: 1
        inSlope: 0
        outSlope: 0
        tangentMode: 10
      - time: .166666672
        value: 1
        inSlope: 0
        outSlope: 0
        tangentMode: 10
      m_PreInfinity: 2
      m_PostInfinity: 2
    attribute: m_Color.g
    path: Label
    classID: 114
    script: {fileID: 708705254, guid: f5f67c52d1564df4a8936ccd202a3bd8, type: 3}
  - curve:
      serializedVersion: 2
      m_Curve:
      - time: 0
        value: 1
        inSlope: 0
        outSlope: 0
        tangentMode: 10
      - time: .166666672
        value: 1
        inSlope: 0
        outSlope: 0
        tangentMode: 10
      m_PreInfinity: 2
      m_PostInfinity: 2
    attribute: m_Color.b
    path: Label
    classID: 114
    script: {fileID: 708705254, guid: f5f67c52d1564df4a8936ccd202a3bd8, type: 3}
  - curve:
      serializedVersion: 2
      m_Curve:
      - time: 0
        value: 1
        inSlope: 0
        outSlope: 0
        tangentMode: 10
      - time: .166666672
        value: 1
        inSlope: 0
        outSlope: 0
        tangentMode: 10
      m_PreInfinity: 2
      m_PostInfinity: 2
    attribute: m_Color.r
    path: Numbers
    classID: 114
    script: {fileID: 708705254, guid: f5f67c52d1564df4a8936ccd202a3bd8, type: 3}
  - curve:
      serializedVersion: 2
      m_Curve:
      - time: 0
        value: 1
        inSlope: 0
        outSlope: 0
        tangentMode: 10
      - time: .166666672
        value: 1
        inSlope: 0
        outSlope: 0
        tangentMode: 10
      m_PreInfinity: 2
      m_PostInfinity: 2
    attribute: m_Color.g
    path: Numbers
    classID: 114
    script: {fileID: 708705254, guid: f5f67c52d1564df4a8936ccd202a3bd8, type: 3}
  - curve:
      serializedVersion: 2
      m_Curve:
      - time: 0
        value: 1
        inSlope: 0
        outSlope: 0
        tangentMode: 10
      - time: .166666672
        value: 1
        inSlope: 0
        outSlope: 0
        tangentMode: 10
      m_PreInfinity: 2
      m_PostInfinity: 2
    attribute: m_Color.b
    path: Numbers
    classID: 114
    script: {fileID: 708705254, guid: f5f67c52d1564df4a8936ccd202a3bd8, type: 3}
  m_PPtrCurves: []
  m_SampleRate: 60
  m_WrapMode: 0
  m_Bounds:
    m_Center: {x: 0, y: 0, z: 0}
    m_Extent: {x: 0, y: 0, z: 0}
  m_ClipBindingConstant:
    genericBindings:
    - path: 3479601132
      attribute: 3
      script: {fileID: 0}
      classID: 4
      customType: 0
      isPPtrCurve: 0
    - path: 3089363813
      attribute: 3
      script: {fileID: 0}
      classID: 4
      customType: 0
      isPPtrCurve: 0
    - path: 3479601132
      attribute: 2526845255
      script: {fileID: 708705254, guid: f5f67c52d1564df4a8936ccd202a3bd8, type: 3}
      classID: 114
      customType: 0
      isPPtrCurve: 0
    - path: 3479601132
      attribute: 4215373228
      script: {fileID: 708705254, guid: f5f67c52d1564df4a8936ccd202a3bd8, type: 3}
      classID: 114
      customType: 0
      isPPtrCurve: 0
    - path: 3479601132
      attribute: 2334886179
      script: {fileID: 708705254, guid: f5f67c52d1564df4a8936ccd202a3bd8, type: 3}
      classID: 114
      customType: 0
      isPPtrCurve: 0
    - path: 3089363813
      attribute: 2526845255
      script: {fileID: 708705254, guid: f5f67c52d1564df4a8936ccd202a3bd8, type: 3}
      classID: 114
      customType: 0
      isPPtrCurve: 0
    - path: 3089363813
      attribute: 4215373228
      script: {fileID: 708705254, guid: f5f67c52d1564df4a8936ccd202a3bd8, type: 3}
      classID: 114
      customType: 0
      isPPtrCurve: 0
    - path: 3089363813
      attribute: 2334886179
      script: {fileID: 708705254, guid: f5f67c52d1564df4a8936ccd202a3bd8, type: 3}
      classID: 114
      customType: 0
      isPPtrCurve: 0
    pptrCurveMapping: []
  m_AnimationClipSettings:
    serializedVersion: 2
    m_StartTime: 0
    m_StopTime: .166666672
    m_OrientationOffsetY: 0
    m_Level: 0
    m_CycleOffset: 0
    m_LoopTime: 1
    m_LoopBlend: 0
    m_LoopBlendOrientation: 0
    m_LoopBlendPositionY: 0
    m_LoopBlendPositionXZ: 0
    m_KeepOriginalOrientation: 0
    m_KeepOriginalPositionY: 1
    m_KeepOriginalPositionXZ: 0
    m_HeightFromFeet: 0
    m_Mirror: 0
  m_EditorCurves:
  - curve:
      serializedVersion: 2
      m_Curve:
      - time: 0
        value: 1
        inSlope: 0
        outSlope: 0
        tangentMode: 10
      - time: .166666672
        value: 1
        inSlope: 0
        outSlope: 0
        tangentMode: 10
      m_PreInfinity: 2
      m_PostInfinity: 2
    attribute: m_LocalScale.x
    path: Label
    classID: 224
    script: {fileID: 0}
  - curve:
      serializedVersion: 2
      m_Curve:
      - time: 0
        value: 1
        inSlope: 0
        outSlope: 0
        tangentMode: 10
      - time: .166666672
        value: 1
        inSlope: 0
        outSlope: 0
        tangentMode: 10
      m_PreInfinity: 2
      m_PostInfinity: 2
    attribute: m_LocalScale.y
    path: Label
    classID: 224
    script: {fileID: 0}
  - curve:
      serializedVersion: 2
      m_Curve:
      - time: 0
        value: 1
        inSlope: 0
        outSlope: 0
        tangentMode: 10
      - time: .166666672
        value: 1
        inSlope: 0
        outSlope: 0
        tangentMode: 10
      m_PreInfinity: 2
      m_PostInfinity: 2
    attribute: m_LocalScale.z
    path: Label
    classID: 224
    script: {fileID: 0}
  - curve:
      serializedVersion: 2
      m_Curve:
      - time: 0
        value: 1
        inSlope: 0
        outSlope: 0
        tangentMode: 10
      - time: .166666672
        value: 1
        inSlope: 0
        outSlope: 0
        tangentMode: 10
      m_PreInfinity: 2
      m_PostInfinity: 2
    attribute: m_LocalScale.x
    path: Numbers
    classID: 224
    script: {fileID: 0}
  - curve:
      serializedVersion: 2
      m_Curve:
      - time: 0
        value: 1
        inSlope: 0
        outSlope: 0
        tangentMode: 10
      - time: .166666672
        value: 1
        inSlope: 0
        outSlope: 0
        tangentMode: 10
      m_PreInfinity: 2
      m_PostInfinity: 2
    attribute: m_LocalScale.y
    path: Numbers
    classID: 224
    script: {fileID: 0}
  - curve:
      serializedVersion: 2
      m_Curve:
      - time: 0
        value: 1
        inSlope: 0
        outSlope: 0
        tangentMode: 10
      - time: .166666672
        value: 1
        inSlope: 0
        outSlope: 0
        tangentMode: 10
      m_PreInfinity: 2
      m_PostInfinity: 2
    attribute: m_LocalScale.z
    path: Numbers
    classID: 224
    script: {fileID: 0}
  - curve:
      serializedVersion: 2
      m_Curve:
      - time: 0
        value: 1
        inSlope: 0
        outSlope: 0
        tangentMode: 10
      - time: .166666672
        value: 1
        inSlope: 0
        outSlope: 0
        tangentMode: 10
      m_PreInfinity: 2
      m_PostInfinity: 2
    attribute: m_Color.r
    path: Label
    classID: 114
    script: {fileID: 708705254, guid: f5f67c52d1564df4a8936ccd202a3bd8, type: 3}
  - curve:
      serializedVersion: 2
      m_Curve:
      - time: 0
        value: 1
        inSlope: 0
        outSlope: 0
        tangentMode: 10
      - time: .166666672
        value: 1
        inSlope: 0
        outSlope: 0
        tangentMode: 10
      m_PreInfinity: 2
      m_PostInfinity: 2
    attribute: m_Color.g
    path: Label
    classID: 114
    script: {fileID: 708705254, guid: f5f67c52d1564df4a8936ccd202a3bd8, type: 3}
  - curve:
      serializedVersion: 2
      m_Curve:
      - time: 0
        value: 1
        inSlope: 0
        outSlope: 0
        tangentMode: 10
      - time: .166666672
        value: 1
        inSlope: 0
        outSlope: 0
        tangentMode: 10
      m_PreInfinity: 2
      m_PostInfinity: 2
    attribute: m_Color.b
    path: Label
    classID: 114
    script: {fileID: 708705254, guid: f5f67c52d1564df4a8936ccd202a3bd8, type: 3}
  - curve:
      serializedVersion: 2
      m_Curve:
      - time: 0
        value: 1
        inSlope: 0
        outSlope: 0
        tangentMode: 10
      - time: .166666672
        value: 1
        inSlope: 0
        outSlope: 0
        tangentMode: 10
      m_PreInfinity: 2
      m_PostInfinity: 2
    attribute: m_Color.r
    path: Numbers
    classID: 114
    script: {fileID: 708705254, guid: f5f67c52d1564df4a8936ccd202a3bd8, type: 3}
  - curve:
      serializedVersion: 2
      m_Curve:
      - time: 0
        value: 1
        inSlope: 0
        outSlope: 0
        tangentMode: 10
      - time: .166666672
        value: 1
        inSlope: 0
        outSlope: 0
        tangentMode: 10
      m_PreInfinity: 2
      m_PostInfinity: 2
    attribute: m_Color.g
    path: Numbers
    classID: 114
    script: {fileID: 708705254, guid: f5f67c52d1564df4a8936ccd202a3bd8, type: 3}
  - curve:
      serializedVersion: 2
      m_Curve:
      - time: 0
        value: 1
        inSlope: 0
        outSlope: 0
        tangentMode: 10
      - time: .166666672
        value: 1
        inSlope: 0
        outSlope: 0
        tangentMode: 10
      m_PreInfinity: 2
      m_PostInfinity: 2
    attribute: m_Color.b
    path: Numbers
    classID: 114
    script: {fileID: 708705254, guid: f5f67c52d1564df4a8936ccd202a3bd8, type: 3}
  m_EulerEditorCurves: []
  m_Events: []
--- !u!74 &7400002
AnimationClip:
  m_ObjectHideFlags: 0
  m_PrefabParentObject: {fileID: 0}
  m_PrefabInternal: {fileID: 0}
  m_Name: Highlighted
  serializedVersion: 4
  m_AnimationType: 2
  m_Compressed: 0
  m_UseHighQualityCurve: 1
  m_RotationCurves: []
  m_CompressedRotationCurves: []
  m_PositionCurves: []
  m_ScaleCurves:
  - curve:
      serializedVersion: 2
      m_Curve:
      - time: 0
        value: {x: 1.21682262, y: 1.21682262, z: 1.21682262}
        inSlope: {x: 0, y: 0, z: 0}
        outSlope: {x: 0, y: 0, z: 0}
        tangentMode: 63
      - time: .166666672
        value: {x: 1.21682262, y: 1.21682262, z: 1.21682262}
        inSlope: {x: 0, y: 0, z: 0}
        outSlope: {x: 0, y: 0, z: 0}
        tangentMode: 101
      m_PreInfinity: 2
      m_PostInfinity: 2
    path: Label
  - curve:
      serializedVersion: 2
      m_Curve:
      - time: 0
        value: {x: 1.4572134, y: 1.45721316, z: 1.45721316}
        inSlope: {x: 0, y: 0, z: 0}
        outSlope: {x: 0, y: 0, z: 0}
        tangentMode: 1073741824
      - time: .166666672
        value: {x: 1.4572134, y: 1.45721316, z: 1.45721316}
        inSlope: {x: 0, y: 0, z: 0}
        outSlope: {x: 0, y: 0, z: 0}
        tangentMode: 0
      m_PreInfinity: 2
      m_PostInfinity: 2
    path: Numbers
  m_FloatCurves:
  - curve:
      serializedVersion: 2
      m_Curve:
      - time: 0
        value: .920297503
        inSlope: 0
        outSlope: 0
        tangentMode: 10
      - time: .166666672
        value: .920297503
        inSlope: 0
        outSlope: 0
        tangentMode: 10
      m_PreInfinity: 2
      m_PostInfinity: 2
    attribute: m_Color.r
    path: Numbers
    classID: 114
    script: {fileID: 708705254, guid: f5f67c52d1564df4a8936ccd202a3bd8, type: 3}
  - curve:
      serializedVersion: 2
      m_Curve:
      - time: 0
        value: .925490201
        inSlope: 0
        outSlope: 0
        tangentMode: 10
      - time: .166666672
        value: .925490201
        inSlope: 0
        outSlope: 0
        tangentMode: 10
      m_PreInfinity: 2
      m_PostInfinity: 2
    attribute: m_Color.g
    path: Numbers
    classID: 114
    script: {fileID: 708705254, guid: f5f67c52d1564df4a8936ccd202a3bd8, type: 3}
  - curve:
      serializedVersion: 2
      m_Curve:
      - time: 0
        value: .549019635
        inSlope: 0
        outSlope: 0
        tangentMode: 10
      - time: .166666672
        value: .549019635
        inSlope: 0
        outSlope: 0
        tangentMode: 10
      m_PreInfinity: 2
      m_PostInfinity: 2
    attribute: m_Color.b
    path: Numbers
    classID: 114
    script: {fileID: 708705254, guid: f5f67c52d1564df4a8936ccd202a3bd8, type: 3}
  - curve:
      serializedVersion: 2
      m_Curve:
      - time: 0
        value: .920297503
        inSlope: 0
        outSlope: 0
        tangentMode: 10
      - time: .166666672
        value: .920297503
        inSlope: 0
        outSlope: 0
        tangentMode: 10
      m_PreInfinity: 2
      m_PostInfinity: 2
    attribute: m_Color.r
    path: Label
    classID: 114
    script: {fileID: 708705254, guid: f5f67c52d1564df4a8936ccd202a3bd8, type: 3}
  - curve:
      serializedVersion: 2
      m_Curve:
      - time: 0
        value: .925490201
        inSlope: 0
        outSlope: 0
        tangentMode: 10
      - time: .166666672
        value: .925490201
        inSlope: 0
        outSlope: 0
        tangentMode: 10
      m_PreInfinity: 2
      m_PostInfinity: 2
    attribute: m_Color.g
    path: Label
    classID: 114
    script: {fileID: 708705254, guid: f5f67c52d1564df4a8936ccd202a3bd8, type: 3}
  - curve:
      serializedVersion: 2
      m_Curve:
      - time: 0
        value: .549019635
        inSlope: 0
        outSlope: 0
        tangentMode: 10
      - time: .166666672
        value: .549019635
        inSlope: 0
        outSlope: 0
        tangentMode: 10
      m_PreInfinity: 2
      m_PostInfinity: 2
    attribute: m_Color.b
    path: Label
    classID: 114
    script: {fileID: 708705254, guid: f5f67c52d1564df4a8936ccd202a3bd8, type: 3}
  - curve:
      serializedVersion: 2
      m_Curve:
      - time: 0
        value: 1
        inSlope: 0
        outSlope: 0
        tangentMode: 10
      - time: .166666672
        value: 1
        inSlope: 0
        outSlope: 0
        tangentMode: 10
      m_PreInfinity: 2
      m_PostInfinity: 2
    attribute: m_Color.a
    path: Label
    classID: 114
    script: {fileID: 708705254, guid: f5f67c52d1564df4a8936ccd202a3bd8, type: 3}
  m_PPtrCurves: []
  m_SampleRate: 60
  m_WrapMode: 0
  m_Bounds:
    m_Center: {x: 0, y: 0, z: 0}
    m_Extent: {x: 0, y: 0, z: 0}
  m_ClipBindingConstant:
    genericBindings:
    - path: 3479601132
      attribute: 3
      script: {fileID: 0}
      classID: 4
      customType: 0
      isPPtrCurve: 0
    - path: 3089363813
      attribute: 3
      script: {fileID: 0}
      classID: 4
      customType: 0
      isPPtrCurve: 0
    - path: 3089363813
      attribute: 2526845255
      script: {fileID: 708705254, guid: f5f67c52d1564df4a8936ccd202a3bd8, type: 3}
      classID: 114
      customType: 0
      isPPtrCurve: 0
    - path: 3089363813
      attribute: 4215373228
      script: {fileID: 708705254, guid: f5f67c52d1564df4a8936ccd202a3bd8, type: 3}
      classID: 114
      customType: 0
      isPPtrCurve: 0
    - path: 3089363813
      attribute: 2334886179
      script: {fileID: 708705254, guid: f5f67c52d1564df4a8936ccd202a3bd8, type: 3}
      classID: 114
      customType: 0
      isPPtrCurve: 0
    - path: 3479601132
      attribute: 2526845255
      script: {fileID: 708705254, guid: f5f67c52d1564df4a8936ccd202a3bd8, type: 3}
      classID: 114
      customType: 0
      isPPtrCurve: 0
    - path: 3479601132
      attribute: 4215373228
      script: {fileID: 708705254, guid: f5f67c52d1564df4a8936ccd202a3bd8, type: 3}
      classID: 114
      customType: 0
      isPPtrCurve: 0
    - path: 3479601132
      attribute: 2334886179
      script: {fileID: 708705254, guid: f5f67c52d1564df4a8936ccd202a3bd8, type: 3}
      classID: 114
      customType: 0
      isPPtrCurve: 0
    - path: 3479601132
      attribute: 304273561
      script: {fileID: 708705254, guid: f5f67c52d1564df4a8936ccd202a3bd8, type: 3}
      classID: 114
      customType: 0
      isPPtrCurve: 0
    pptrCurveMapping: []
  m_AnimationClipSettings:
    serializedVersion: 2
    m_StartTime: 0
    m_StopTime: .166666672
    m_OrientationOffsetY: 0
    m_Level: 0
    m_CycleOffset: 0
    m_LoopTime: 1
    m_LoopBlend: 0
    m_LoopBlendOrientation: 0
    m_LoopBlendPositionY: 0
    m_LoopBlendPositionXZ: 0
    m_KeepOriginalOrientation: 0
    m_KeepOriginalPositionY: 1
    m_KeepOriginalPositionXZ: 0
    m_HeightFromFeet: 0
    m_Mirror: 0
  m_EditorCurves:
  - curve:
      serializedVersion: 2
      m_Curve:
      - time: 0
        value: 1.21682262
        inSlope: 0
        outSlope: 0
        tangentMode: 10
      - time: .166666672
        value: 1.21682262
        inSlope: 0
        outSlope: 0
        tangentMode: 10
      m_PreInfinity: 2
      m_PostInfinity: 2
    attribute: m_LocalScale.x
    path: Label
    classID: 224
    script: {fileID: 0}
  - curve:
      serializedVersion: 2
      m_Curve:
      - time: 0
        value: 1.21682262
        inSlope: 0
        outSlope: 0
        tangentMode: 10
      - time: .166666672
        value: 1.21682262
        inSlope: 0
        outSlope: 0
        tangentMode: 10
      m_PreInfinity: 2
      m_PostInfinity: 2
    attribute: m_LocalScale.y
    path: Label
    classID: 224
    script: {fileID: 0}
  - curve:
      serializedVersion: 2
      m_Curve:
      - time: 0
        value: 1.21682262
        inSlope: 0
        outSlope: 0
        tangentMode: 10
      - time: .166666672
        value: 1.21682262
        inSlope: 0
        outSlope: 0
        tangentMode: 10
      m_PreInfinity: 2
      m_PostInfinity: 2
    attribute: m_LocalScale.z
    path: Label
    classID: 224
    script: {fileID: 0}
  - curve:
      serializedVersion: 2
      m_Curve:
      - time: 0
        value: 1.4572134
        inSlope: 0
        outSlope: 0
        tangentMode: 10
      - time: .166666672
        value: 1.4572134
        inSlope: 0
        outSlope: 0
        tangentMode: 10
      m_PreInfinity: 2
      m_PostInfinity: 2
    attribute: m_LocalScale.x
    path: Numbers
    classID: 224
    script: {fileID: 0}
  - curve:
      serializedVersion: 2
      m_Curve:
      - time: 0
        value: 1.45721316
        inSlope: 0
        outSlope: 0
        tangentMode: 10
      - time: .166666672
        value: 1.45721316
        inSlope: 0
        outSlope: 0
        tangentMode: 10
      m_PreInfinity: 2
      m_PostInfinity: 2
    attribute: m_LocalScale.y
    path: Numbers
    classID: 224
    script: {fileID: 0}
  - curve:
      serializedVersion: 2
      m_Curve:
      - time: 0
        value: 1.45721316
        inSlope: 0
        outSlope: 0
        tangentMode: 10
      - time: .166666672
        value: 1.45721316
        inSlope: 0
        outSlope: 0
        tangentMode: 10
      m_PreInfinity: 2
      m_PostInfinity: 2
    attribute: m_LocalScale.z
    path: Numbers
    classID: 224
    script: {fileID: 0}
  - curve:
      serializedVersion: 2
      m_Curve:
      - time: 0
        value: .920297503
        inSlope: 0
        outSlope: 0
        tangentMode: 10
      - time: .166666672
        value: .920297503
        inSlope: 0
        outSlope: 0
        tangentMode: 10
      m_PreInfinity: 2
      m_PostInfinity: 2
    attribute: m_Color.r
    path: Numbers
    classID: 114
    script: {fileID: 708705254, guid: f5f67c52d1564df4a8936ccd202a3bd8, type: 3}
  - curve:
      serializedVersion: 2
      m_Curve:
      - time: 0
        value: .925490201
        inSlope: 0
        outSlope: 0
        tangentMode: 10
      - time: .166666672
        value: .925490201
        inSlope: 0
        outSlope: 0
        tangentMode: 10
      m_PreInfinity: 2
      m_PostInfinity: 2
    attribute: m_Color.g
    path: Numbers
    classID: 114
    script: {fileID: 708705254, guid: f5f67c52d1564df4a8936ccd202a3bd8, type: 3}
  - curve:
      serializedVersion: 2
      m_Curve:
      - time: 0
        value: .549019635
        inSlope: 0
        outSlope: 0
        tangentMode: 10
      - time: .166666672
        value: .549019635
        inSlope: 0
        outSlope: 0
        tangentMode: 10
      m_PreInfinity: 2
      m_PostInfinity: 2
    attribute: m_Color.b
    path: Numbers
    classID: 114
    script: {fileID: 708705254, guid: f5f67c52d1564df4a8936ccd202a3bd8, type: 3}
  - curve:
      serializedVersion: 2
      m_Curve:
      - time: 0
        value: .920297503
        inSlope: 0
        outSlope: 0
        tangentMode: 10
      - time: .166666672
        value: .920297503
        inSlope: 0
        outSlope: 0
        tangentMode: 10
      m_PreInfinity: 2
      m_PostInfinity: 2
    attribute: m_Color.r
    path: Label
    classID: 114
    script: {fileID: 708705254, guid: f5f67c52d1564df4a8936ccd202a3bd8, type: 3}
  - curve:
      serializedVersion: 2
      m_Curve:
      - time: 0
        value: .925490201
        inSlope: 0
        outSlope: 0
        tangentMode: 10
      - time: .166666672
        value: .925490201
        inSlope: 0
        outSlope: 0
        tangentMode: 10
      m_PreInfinity: 2
      m_PostInfinity: 2
    attribute: m_Color.g
    path: Label
    classID: 114
    script: {fileID: 708705254, guid: f5f67c52d1564df4a8936ccd202a3bd8, type: 3}
  - curve:
      serializedVersion: 2
      m_Curve:
      - time: 0
        value: .549019635
        inSlope: 0
        outSlope: 0
        tangentMode: 10
      - time: .166666672
        value: .549019635
        inSlope: 0
        outSlope: 0
        tangentMode: 10
      m_PreInfinity: 2
      m_PostInfinity: 2
    attribute: m_Color.b
    path: Label
    classID: 114
    script: {fileID: 708705254, guid: f5f67c52d1564df4a8936ccd202a3bd8, type: 3}
  - curve:
      serializedVersion: 2
      m_Curve:
      - time: 0
        value: 1
        inSlope: 0
        outSlope: 0
        tangentMode: 10
      - time: .166666672
        value: 1
        inSlope: 0
        outSlope: 0
        tangentMode: 10
      m_PreInfinity: 2
      m_PostInfinity: 2
    attribute: m_Color.a
    path: Label
    classID: 114
    script: {fileID: 708705254, guid: f5f67c52d1564df4a8936ccd202a3bd8, type: 3}
  m_EulerEditorCurves: []
  m_Events: []
--- !u!74 &7400004
AnimationClip:
  m_ObjectHideFlags: 0
  m_PrefabParentObject: {fileID: 0}
  m_PrefabInternal: {fileID: 0}
  m_Name: Pressed
  serializedVersion: 4
  m_AnimationType: 2
  m_Compressed: 0
  m_UseHighQualityCurve: 1
  m_RotationCurves: []
  m_CompressedRotationCurves: []
  m_PositionCurves: []
  m_ScaleCurves:
  - curve:
      serializedVersion: 2
      m_Curve:
      - time: 0
        value: {x: 1.4572134, y: 1.45721316, z: 1.45721316}
        inSlope: {x: 0, y: 0, z: 0}
        outSlope: {x: 0, y: 0, z: 0}
        tangentMode: 15
      - time: .166666672
        value: {x: 1.4572134, y: 1.45721316, z: 1.45721316}
        inSlope: {x: 0, y: 0, z: 0}
        outSlope: {x: 0, y: 0, z: 0}
        tangentMode: 2
      m_PreInfinity: 2
      m_PostInfinity: 2
    path: Numbers
  - curve:
      serializedVersion: 2
      m_Curve:
      - time: 0
        value: {x: 1.21682262, y: 1.21682262, z: 1.21682262}
        inSlope: {x: 0, y: 0, z: 0}
        outSlope: {x: 0, y: 0, z: 0}
        tangentMode: 150928132
      - time: .166666672
        value: {x: 1.21682262, y: 1.21682262, z: 1.21682262}
        inSlope: {x: 0, y: 0, z: 0}
        outSlope: {x: 0, y: 0, z: 0}
        tangentMode: 13
      m_PreInfinity: 2
      m_PostInfinity: 2
    path: Label
  m_FloatCurves:
  - curve:
      serializedVersion: 2
      m_Curve:
      - time: 0
        value: .845588207
        inSlope: 0
        outSlope: 0
        tangentMode: 10
      - time: .166666672
        value: .845588207
        inSlope: 0
        outSlope: 0
        tangentMode: 10
      m_PreInfinity: 2
      m_PostInfinity: 2
    attribute: m_Color.r
    path: Numbers
    classID: 114
    script: {fileID: 708705254, guid: f5f67c52d1564df4a8936ccd202a3bd8, type: 3}
  - curve:
      serializedVersion: 2
      m_Curve:
      - time: 0
        value: .448007375
        inSlope: 0
        outSlope: 0
        tangentMode: 10
      - time: .166666672
        value: .448007375
        inSlope: 0
        outSlope: 0
        tangentMode: 10
      m_PreInfinity: 2
      m_PostInfinity: 2
    attribute: m_Color.g
    path: Numbers
    classID: 114
    script: {fileID: 708705254, guid: f5f67c52d1564df4a8936ccd202a3bd8, type: 3}
  - curve:
      serializedVersion: 2
      m_Curve:
      - time: 0
        value: .087045826
        inSlope: 0
        outSlope: 0
        tangentMode: 10
      - time: .166666672
        value: .087045826
        inSlope: 0
        outSlope: 0
        tangentMode: 10
      m_PreInfinity: 2
      m_PostInfinity: 2
    attribute: m_Color.b
    path: Numbers
    classID: 114
    script: {fileID: 708705254, guid: f5f67c52d1564df4a8936ccd202a3bd8, type: 3}
  - curve:
      serializedVersion: 2
      m_Curve:
      - time: 0
        value: .845588207
        inSlope: 0
        outSlope: 0
        tangentMode: 10
      - time: .166666672
        value: .845588207
        inSlope: 0
        outSlope: 0
        tangentMode: 10
      m_PreInfinity: 2
      m_PostInfinity: 2
    attribute: m_Color.r
    path: Label
    classID: 114
    script: {fileID: 708705254, guid: f5f67c52d1564df4a8936ccd202a3bd8, type: 3}
  - curve:
      serializedVersion: 2
      m_Curve:
      - time: 0
        value: .448007375
        inSlope: 0
        outSlope: 0
        tangentMode: 10
      - time: .166666672
        value: .448007375
        inSlope: 0
        outSlope: 0
        tangentMode: 10
      m_PreInfinity: 2
      m_PostInfinity: 2
    attribute: m_Color.g
    path: Label
    classID: 114
    script: {fileID: 708705254, guid: f5f67c52d1564df4a8936ccd202a3bd8, type: 3}
  - curve:
      serializedVersion: 2
      m_Curve:
      - time: 0
        value: .087045826
        inSlope: 0
        outSlope: 0
        tangentMode: 10
      - time: .166666672
        value: .087045826
        inSlope: 0
        outSlope: 0
        tangentMode: 10
      m_PreInfinity: 2
      m_PostInfinity: 2
    attribute: m_Color.b
    path: Label
    classID: 114
    script: {fileID: 708705254, guid: f5f67c52d1564df4a8936ccd202a3bd8, type: 3}
  - curve:
      serializedVersion: 2
      m_Curve:
      - time: 0
        value: 1
        inSlope: 0
        outSlope: 0
        tangentMode: 10
      - time: .166666672
        value: 1
        inSlope: 0
        outSlope: 0
        tangentMode: 10
      m_PreInfinity: 2
      m_PostInfinity: 2
    attribute: m_Color.a
    path: Label
    classID: 114
    script: {fileID: 708705254, guid: f5f67c52d1564df4a8936ccd202a3bd8, type: 3}
  m_PPtrCurves: []
  m_SampleRate: 60
  m_WrapMode: 0
  m_Bounds:
    m_Center: {x: 0, y: 0, z: 0}
    m_Extent: {x: 0, y: 0, z: 0}
  m_ClipBindingConstant:
    genericBindings:
    - path: 3089363813
      attribute: 3
      script: {fileID: 0}
      classID: 4
      customType: 0
      isPPtrCurve: 0
    - path: 3479601132
      attribute: 3
      script: {fileID: 0}
      classID: 4
      customType: 0
      isPPtrCurve: 0
    - path: 3089363813
      attribute: 2526845255
      script: {fileID: 708705254, guid: f5f67c52d1564df4a8936ccd202a3bd8, type: 3}
      classID: 114
      customType: 0
      isPPtrCurve: 0
    - path: 3089363813
      attribute: 4215373228
      script: {fileID: 708705254, guid: f5f67c52d1564df4a8936ccd202a3bd8, type: 3}
      classID: 114
      customType: 0
      isPPtrCurve: 0
    - path: 3089363813
      attribute: 2334886179
      script: {fileID: 708705254, guid: f5f67c52d1564df4a8936ccd202a3bd8, type: 3}
      classID: 114
      customType: 0
      isPPtrCurve: 0
    - path: 3479601132
      attribute: 2526845255
      script: {fileID: 708705254, guid: f5f67c52d1564df4a8936ccd202a3bd8, type: 3}
      classID: 114
      customType: 0
      isPPtrCurve: 0
    - path: 3479601132
      attribute: 4215373228
      script: {fileID: 708705254, guid: f5f67c52d1564df4a8936ccd202a3bd8, type: 3}
      classID: 114
      customType: 0
      isPPtrCurve: 0
    - path: 3479601132
      attribute: 2334886179
      script: {fileID: 708705254, guid: f5f67c52d1564df4a8936ccd202a3bd8, type: 3}
      classID: 114
      customType: 0
      isPPtrCurve: 0
    - path: 3479601132
      attribute: 304273561
      script: {fileID: 708705254, guid: f5f67c52d1564df4a8936ccd202a3bd8, type: 3}
      classID: 114
      customType: 0
      isPPtrCurve: 0
    pptrCurveMapping: []
  m_AnimationClipSettings:
    serializedVersion: 2
    m_StartTime: 0
    m_StopTime: .166666672
    m_OrientationOffsetY: 0
    m_Level: 0
    m_CycleOffset: 0
    m_LoopTime: 1
    m_LoopBlend: 0
    m_LoopBlendOrientation: 0
    m_LoopBlendPositionY: 0
    m_LoopBlendPositionXZ: 0
    m_KeepOriginalOrientation: 0
    m_KeepOriginalPositionY: 1
    m_KeepOriginalPositionXZ: 0
    m_HeightFromFeet: 0
    m_Mirror: 0
  m_EditorCurves:
  - curve:
      serializedVersion: 2
      m_Curve:
      - time: 0
        value: 1.4572134
        inSlope: 0
        outSlope: 0
        tangentMode: 10
      - time: .166666672
        value: 1.4572134
        inSlope: 0
        outSlope: 0
        tangentMode: 10
      m_PreInfinity: 2
      m_PostInfinity: 2
    attribute: m_LocalScale.x
    path: Numbers
    classID: 224
    script: {fileID: 0}
  - curve:
      serializedVersion: 2
      m_Curve:
      - time: 0
        value: 1.45721316
        inSlope: 0
        outSlope: 0
        tangentMode: 10
      - time: .166666672
        value: 1.45721316
        inSlope: 0
        outSlope: 0
        tangentMode: 10
      m_PreInfinity: 2
      m_PostInfinity: 2
    attribute: m_LocalScale.y
    path: Numbers
    classID: 224
    script: {fileID: 0}
  - curve:
      serializedVersion: 2
      m_Curve:
      - time: 0
        value: 1.45721316
        inSlope: 0
        outSlope: 0
        tangentMode: 10
      - time: .166666672
        value: 1.45721316
        inSlope: 0
        outSlope: 0
        tangentMode: 10
      m_PreInfinity: 2
      m_PostInfinity: 2
    attribute: m_LocalScale.z
    path: Numbers
    classID: 224
    script: {fileID: 0}
  - curve:
      serializedVersion: 2
      m_Curve:
      - time: 0
        value: .845588207
        inSlope: 0
        outSlope: 0
        tangentMode: 10
      - time: .166666672
        value: .845588207
        inSlope: 0
        outSlope: 0
        tangentMode: 10
      m_PreInfinity: 2
      m_PostInfinity: 2
    attribute: m_Color.r
    path: Numbers
    classID: 114
    script: {fileID: 708705254, guid: f5f67c52d1564df4a8936ccd202a3bd8, type: 3}
  - curve:
      serializedVersion: 2
      m_Curve:
      - time: 0
        value: .448007375
        inSlope: 0
        outSlope: 0
        tangentMode: 10
      - time: .166666672
        value: .448007375
        inSlope: 0
        outSlope: 0
        tangentMode: 10
      m_PreInfinity: 2
      m_PostInfinity: 2
    attribute: m_Color.g
    path: Numbers
    classID: 114
    script: {fileID: 708705254, guid: f5f67c52d1564df4a8936ccd202a3bd8, type: 3}
  - curve:
      serializedVersion: 2
      m_Curve:
      - time: 0
        value: .087045826
        inSlope: 0
        outSlope: 0
        tangentMode: 10
      - time: .166666672
        value: .087045826
        inSlope: 0
        outSlope: 0
        tangentMode: 10
      m_PreInfinity: 2
      m_PostInfinity: 2
    attribute: m_Color.b
    path: Numbers
    classID: 114
    script: {fileID: 708705254, guid: f5f67c52d1564df4a8936ccd202a3bd8, type: 3}
  - curve:
      serializedVersion: 2
      m_Curve:
      - time: 0
        value: 1.21682262
        inSlope: 0
        outSlope: 0
        tangentMode: 10
      - time: .166666672
        value: 1.21682262
        inSlope: 0
        outSlope: 0
        tangentMode: 10
      m_PreInfinity: 2
      m_PostInfinity: 2
    attribute: m_LocalScale.x
    path: Label
    classID: 224
    script: {fileID: 0}
  - curve:
      serializedVersion: 2
      m_Curve:
      - time: 0
        value: 1.21682262
        inSlope: 0
        outSlope: 0
        tangentMode: 10
      - time: .166666672
        value: 1.21682262
        inSlope: 0
        outSlope: 0
        tangentMode: 10
      m_PreInfinity: 2
      m_PostInfinity: 2
    attribute: m_LocalScale.y
    path: Label
    classID: 224
    script: {fileID: 0}
  - curve:
      serializedVersion: 2
      m_Curve:
      - time: 0
        value: 1.21682262
        inSlope: 0
        outSlope: 0
        tangentMode: 10
      - time: .166666672
        value: 1.21682262
        inSlope: 0
        outSlope: 0
        tangentMode: 10
      m_PreInfinity: 2
      m_PostInfinity: 2
    attribute: m_LocalScale.z
    path: Label
    classID: 224
    script: {fileID: 0}
  - curve:
      serializedVersion: 2
      m_Curve:
      - time: 0
        value: .845588207
        inSlope: 0
        outSlope: 0
        tangentMode: 10
      - time: .166666672
        value: .845588207
        inSlope: 0
        outSlope: 0
        tangentMode: 10
      m_PreInfinity: 2
      m_PostInfinity: 2
    attribute: m_Color.r
    path: Label
    classID: 114
    script: {fileID: 708705254, guid: f5f67c52d1564df4a8936ccd202a3bd8, type: 3}
  - curve:
      serializedVersion: 2
      m_Curve:
      - time: 0
        value: .448007375
        inSlope: 0
        outSlope: 0
        tangentMode: 10
      - time: .166666672
        value: .448007375
        inSlope: 0
        outSlope: 0
        tangentMode: 10
      m_PreInfinity: 2
      m_PostInfinity: 2
    attribute: m_Color.g
    path: Label
    classID: 114
    script: {fileID: 708705254, guid: f5f67c52d1564df4a8936ccd202a3bd8, type: 3}
  - curve:
      serializedVersion: 2
      m_Curve:
      - time: 0
        value: .087045826
        inSlope: 0
        outSlope: 0
        tangentMode: 10
      - time: .166666672
        value: .087045826
        inSlope: 0
        outSlope: 0
        tangentMode: 10
      m_PreInfinity: 2
      m_PostInfinity: 2
    attribute: m_Color.b
    path: Label
    classID: 114
    script: {fileID: 708705254, guid: f5f67c52d1564df4a8936ccd202a3bd8, type: 3}
  - curve:
      serializedVersion: 2
      m_Curve:
      - time: 0
        value: 1
        inSlope: 0
        outSlope: 0
        tangentMode: 10
      - time: .166666672
        value: 1
        inSlope: 0
        outSlope: 0
        tangentMode: 10
      m_PreInfinity: 2
      m_PostInfinity: 2
    attribute: m_Color.a
    path: Label
    classID: 114
    script: {fileID: 708705254, guid: f5f67c52d1564df4a8936ccd202a3bd8, type: 3}
  m_EulerEditorCurves: []
  m_Events: []
--- !u!74 &7400006
AnimationClip:
  m_ObjectHideFlags: 0
  m_PrefabParentObject: {fileID: 0}
  m_PrefabInternal: {fileID: 0}
  m_Name: Disabled
  serializedVersion: 4
  m_AnimationType: 2
  m_Compressed: 0
  m_UseHighQualityCurve: 1
  m_RotationCurves: []
  m_CompressedRotationCurves: []
  m_PositionCurves: []
  m_ScaleCurves:
  - curve:
      serializedVersion: 2
      m_Curve:
      - time: 0
        value: {x: 1, y: 1, z: 1}
        inSlope: {x: 0, y: 0, z: 0}
        outSlope: {x: 0, y: 0, z: 0}
        tangentMode: 4
      - time: .166666672
        value: {x: 1, y: 1, z: 1}
        inSlope: {x: 0, y: 0, z: 0}
        outSlope: {x: 0, y: 0, z: 0}
        tangentMode: 0
      m_PreInfinity: 2
      m_PostInfinity: 2
    path: Label
  - curve:
      serializedVersion: 2
      m_Curve:
      - time: 0
        value: {x: 1, y: 1, z: 1}
        inSlope: {x: 0, y: 0, z: 0}
        outSlope: {x: 0, y: 0, z: 0}
        tangentMode: 12
      - time: .166666672
        value: {x: 1, y: 1, z: 1}
        inSlope: {x: 0, y: 0, z: 0}
        outSlope: {x: 0, y: 0, z: 0}
        tangentMode: 7602264
      m_PreInfinity: 2
      m_PostInfinity: 2
    path: Numbers
  m_FloatCurves:
  - curve:
      serializedVersion: 2
      m_Curve:
      - time: 0
        value: 1
        inSlope: 0
        outSlope: 0
        tangentMode: 10
      - time: .166666672
        value: 1
        inSlope: 0
        outSlope: 0
        tangentMode: 10
      m_PreInfinity: 2
      m_PostInfinity: 2
    attribute: m_Color.r
    path: Label
    classID: 114
    script: {fileID: 708705254, guid: f5f67c52d1564df4a8936ccd202a3bd8, type: 3}
  - curve:
      serializedVersion: 2
      m_Curve:
      - time: 0
        value: 1
        inSlope: 0
        outSlope: 0
        tangentMode: 10
      - time: .166666672
        value: 1
        inSlope: 0
        outSlope: 0
        tangentMode: 10
      m_PreInfinity: 2
      m_PostInfinity: 2
    attribute: m_Color.g
    path: Label
    classID: 114
    script: {fileID: 708705254, guid: f5f67c52d1564df4a8936ccd202a3bd8, type: 3}
  - curve:
      serializedVersion: 2
      m_Curve:
      - time: 0
        value: 1
        inSlope: 0
        outSlope: 0
        tangentMode: 10
      - time: .166666672
        value: 1
        inSlope: 0
        outSlope: 0
        tangentMode: 10
      m_PreInfinity: 2
      m_PostInfinity: 2
    attribute: m_Color.b
    path: Label
    classID: 114
    script: {fileID: 708705254, guid: f5f67c52d1564df4a8936ccd202a3bd8, type: 3}
  - curve:
      serializedVersion: 2
      m_Curve:
      - time: 0
        value: 1
        inSlope: 0
        outSlope: 0
        tangentMode: 10
      - time: .166666672
        value: 1
        inSlope: 0
        outSlope: 0
        tangentMode: 10
      m_PreInfinity: 2
      m_PostInfinity: 2
    attribute: m_Color.r
    path: Numbers
    classID: 114
    script: {fileID: 708705254, guid: f5f67c52d1564df4a8936ccd202a3bd8, type: 3}
  - curve:
      serializedVersion: 2
      m_Curve:
      - time: 0
        value: 1
        inSlope: 0
        outSlope: 0
        tangentMode: 10
      - time: .166666672
        value: 1
        inSlope: 0
        outSlope: 0
        tangentMode: 10
      m_PreInfinity: 2
      m_PostInfinity: 2
    attribute: m_Color.g
    path: Numbers
    classID: 114
    script: {fileID: 708705254, guid: f5f67c52d1564df4a8936ccd202a3bd8, type: 3}
  - curve:
      serializedVersion: 2
      m_Curve:
      - time: 0
        value: 1
        inSlope: 0
        outSlope: 0
        tangentMode: 10
      - time: .166666672
        value: 1
        inSlope: 0
        outSlope: 0
        tangentMode: 10
      m_PreInfinity: 2
      m_PostInfinity: 2
    attribute: m_Color.b
    path: Numbers
    classID: 114
    script: {fileID: 708705254, guid: f5f67c52d1564df4a8936ccd202a3bd8, type: 3}
  - curve:
      serializedVersion: 2
      m_Curve:
      - time: 0
        value: 1
        inSlope: -2.58823514
        outSlope: -2.58823514
        tangentMode: 10
      - time: .166666672
        value: .568627477
        inSlope: -2.58823514
        outSlope: -2.58823514
        tangentMode: 10
      m_PreInfinity: 2
      m_PostInfinity: 2
    attribute: m_Color.a
    path: Label
    classID: 114
    script: {fileID: 708705254, guid: f5f67c52d1564df4a8936ccd202a3bd8, type: 3}
  - curve:
      serializedVersion: 2
      m_Curve:
      - time: 0
        value: 1
        inSlope: -2.58823514
        outSlope: -2.58823514
        tangentMode: 10
      - time: .166666672
        value: .568627477
        inSlope: -2.58823514
        outSlope: -2.58823514
        tangentMode: 10
      m_PreInfinity: 2
      m_PostInfinity: 2
    attribute: m_Color.a
    path: Numbers
    classID: 114
    script: {fileID: 708705254, guid: f5f67c52d1564df4a8936ccd202a3bd8, type: 3}
  m_PPtrCurves: []
  m_SampleRate: 60
  m_WrapMode: 0
  m_Bounds:
    m_Center: {x: 0, y: 0, z: 0}
    m_Extent: {x: 0, y: 0, z: 0}
  m_ClipBindingConstant:
    genericBindings:
    - path: 3479601132
      attribute: 304273561
      script: {fileID: 708705254, guid: f5f67c52d1564df4a8936ccd202a3bd8, type: 3}
      classID: 114
      customType: 0
      isPPtrCurve: 0
    - path: 3089363813
      attribute: 304273561
      script: {fileID: 708705254, guid: f5f67c52d1564df4a8936ccd202a3bd8, type: 3}
      classID: 114
      customType: 0
      isPPtrCurve: 0
    - path: 3479601132
      attribute: 3
      script: {fileID: 0}
      classID: 4
      customType: 0
      isPPtrCurve: 0
    - path: 3089363813
      attribute: 3
      script: {fileID: 0}
      classID: 4
      customType: 0
      isPPtrCurve: 0
    - path: 3479601132
      attribute: 2526845255
      script: {fileID: 708705254, guid: f5f67c52d1564df4a8936ccd202a3bd8, type: 3}
      classID: 114
      customType: 0
      isPPtrCurve: 0
    - path: 3479601132
      attribute: 4215373228
      script: {fileID: 708705254, guid: f5f67c52d1564df4a8936ccd202a3bd8, type: 3}
      classID: 114
      customType: 0
      isPPtrCurve: 0
    - path: 3479601132
      attribute: 2334886179
      script: {fileID: 708705254, guid: f5f67c52d1564df4a8936ccd202a3bd8, type: 3}
      classID: 114
      customType: 0
      isPPtrCurve: 0
    - path: 3089363813
      attribute: 2526845255
      script: {fileID: 708705254, guid: f5f67c52d1564df4a8936ccd202a3bd8, type: 3}
      classID: 114
      customType: 0
      isPPtrCurve: 0
    - path: 3089363813
      attribute: 4215373228
      script: {fileID: 708705254, guid: f5f67c52d1564df4a8936ccd202a3bd8, type: 3}
      classID: 114
      customType: 0
      isPPtrCurve: 0
    - path: 3089363813
      attribute: 2334886179
      script: {fileID: 708705254, guid: f5f67c52d1564df4a8936ccd202a3bd8, type: 3}
      classID: 114
      customType: 0
      isPPtrCurve: 0
    pptrCurveMapping: []
  m_AnimationClipSettings:
    serializedVersion: 2
    m_StartTime: 0
    m_StopTime: .166666672
    m_OrientationOffsetY: 0
    m_Level: 0
    m_CycleOffset: 0
    m_LoopTime: 1
    m_LoopBlend: 0
    m_LoopBlendOrientation: 0
    m_LoopBlendPositionY: 0
    m_LoopBlendPositionXZ: 0
    m_KeepOriginalOrientation: 0
    m_KeepOriginalPositionY: 1
    m_KeepOriginalPositionXZ: 0
    m_HeightFromFeet: 0
    m_Mirror: 0
  m_EditorCurves:
  - curve:
      serializedVersion: 2
      m_Curve:
      - time: 0
        value: 1
        inSlope: 0
        outSlope: 0
        tangentMode: 10
      - time: .166666672
        value: 1
        inSlope: 0
        outSlope: 0
        tangentMode: 10
      m_PreInfinity: 2
      m_PostInfinity: 2
    attribute: m_LocalScale.x
    path: Label
    classID: 224
    script: {fileID: 0}
  - curve:
      serializedVersion: 2
      m_Curve:
      - time: 0
        value: 1
        inSlope: 0
        outSlope: 0
        tangentMode: 10
      - time: .166666672
        value: 1
        inSlope: 0
        outSlope: 0
        tangentMode: 10
      m_PreInfinity: 2
      m_PostInfinity: 2
    attribute: m_LocalScale.y
    path: Label
    classID: 224
    script: {fileID: 0}
  - curve:
      serializedVersion: 2
      m_Curve:
      - time: 0
        value: 1
        inSlope: 0
        outSlope: 0
        tangentMode: 10
      - time: .166666672
        value: 1
        inSlope: 0
        outSlope: 0
        tangentMode: 10
      m_PreInfinity: 2
      m_PostInfinity: 2
    attribute: m_LocalScale.z
    path: Label
    classID: 224
    script: {fileID: 0}
  - curve:
      serializedVersion: 2
      m_Curve:
      - time: 0
        value: 1
        inSlope: 0
        outSlope: 0
        tangentMode: 10
      - time: .166666672
        value: 1
        inSlope: 0
        outSlope: 0
        tangentMode: 10
      m_PreInfinity: 2
      m_PostInfinity: 2
    attribute: m_Color.r
    path: Label
    classID: 114
    script: {fileID: 708705254, guid: f5f67c52d1564df4a8936ccd202a3bd8, type: 3}
  - curve:
      serializedVersion: 2
      m_Curve:
      - time: 0
        value: 1
        inSlope: 0
        outSlope: 0
        tangentMode: 10
      - time: .166666672
        value: 1
        inSlope: 0
        outSlope: 0
        tangentMode: 10
      m_PreInfinity: 2
      m_PostInfinity: 2
    attribute: m_Color.g
    path: Label
    classID: 114
    script: {fileID: 708705254, guid: f5f67c52d1564df4a8936ccd202a3bd8, type: 3}
  - curve:
      serializedVersion: 2
      m_Curve:
      - time: 0
        value: 1
        inSlope: 0
        outSlope: 0
        tangentMode: 10
      - time: .166666672
        value: 1
        inSlope: 0
        outSlope: 0
        tangentMode: 10
      m_PreInfinity: 2
      m_PostInfinity: 2
    attribute: m_Color.b
    path: Label
    classID: 114
    script: {fileID: 708705254, guid: f5f67c52d1564df4a8936ccd202a3bd8, type: 3}
  - curve:
      serializedVersion: 2
      m_Curve:
      - time: 0
        value: 1
        inSlope: 0
        outSlope: 0
        tangentMode: 10
      - time: .166666672
        value: 1
        inSlope: 0
        outSlope: 0
        tangentMode: 10
      m_PreInfinity: 2
      m_PostInfinity: 2
    attribute: m_LocalScale.x
    path: Numbers
    classID: 224
    script: {fileID: 0}
  - curve:
      serializedVersion: 2
      m_Curve:
      - time: 0
        value: 1
        inSlope: 0
        outSlope: 0
        tangentMode: 10
      - time: .166666672
        value: 1
        inSlope: 0
        outSlope: 0
        tangentMode: 10
      m_PreInfinity: 2
      m_PostInfinity: 2
    attribute: m_LocalScale.y
    path: Numbers
    classID: 224
    script: {fileID: 0}
  - curve:
      serializedVersion: 2
      m_Curve:
      - time: 0
        value: 1
        inSlope: 0
        outSlope: 0
        tangentMode: 10
      - time: .166666672
        value: 1
        inSlope: 0
        outSlope: 0
        tangentMode: 10
      m_PreInfinity: 2
      m_PostInfinity: 2
    attribute: m_LocalScale.z
    path: Numbers
    classID: 224
    script: {fileID: 0}
  - curve:
      serializedVersion: 2
      m_Curve:
      - time: 0
        value: 1
        inSlope: 0
        outSlope: 0
        tangentMode: 10
      - time: .166666672
        value: 1
        inSlope: 0
        outSlope: 0
        tangentMode: 10
      m_PreInfinity: 2
      m_PostInfinity: 2
    attribute: m_Color.r
    path: Numbers
    classID: 114
    script: {fileID: 708705254, guid: f5f67c52d1564df4a8936ccd202a3bd8, type: 3}
  - curve:
      serializedVersion: 2
      m_Curve:
      - time: 0
        value: 1
        inSlope: 0
        outSlope: 0
        tangentMode: 10
      - time: .166666672
        value: 1
        inSlope: 0
        outSlope: 0
        tangentMode: 10
      m_PreInfinity: 2
      m_PostInfinity: 2
    attribute: m_Color.g
    path: Numbers
    classID: 114
    script: {fileID: 708705254, guid: f5f67c52d1564df4a8936ccd202a3bd8, type: 3}
  - curve:
      serializedVersion: 2
      m_Curve:
      - time: 0
        value: 1
        inSlope: 0
        outSlope: 0
        tangentMode: 10
      - time: .166666672
        value: 1
        inSlope: 0
        outSlope: 0
        tangentMode: 10
      m_PreInfinity: 2
      m_PostInfinity: 2
    attribute: m_Color.b
    path: Numbers
    classID: 114
    script: {fileID: 708705254, guid: f5f67c52d1564df4a8936ccd202a3bd8, type: 3}
  - curve:
      serializedVersion: 2
      m_Curve:
      - time: 0
        value: 1
        inSlope: -2.58823514
        outSlope: -2.58823514
        tangentMode: 10
      - time: .166666672
        value: .568627477
        inSlope: -2.58823514
        outSlope: -2.58823514
        tangentMode: 10
      m_PreInfinity: 2
      m_PostInfinity: 2
    attribute: m_Color.a
    path: Label
    classID: 114
    script: {fileID: 708705254, guid: f5f67c52d1564df4a8936ccd202a3bd8, type: 3}
  - curve:
      serializedVersion: 2
      m_Curve:
      - time: 0
        value: 1
        inSlope: -2.58823514
        outSlope: -2.58823514
        tangentMode: 10
      - time: .166666672
        value: .568627477
        inSlope: -2.58823514
        outSlope: -2.58823514
        tangentMode: 10
      m_PreInfinity: 2
      m_PostInfinity: 2
    attribute: m_Color.a
    path: Numbers
    classID: 114
    script: {fileID: 708705254, guid: f5f67c52d1564df4a8936ccd202a3bd8, type: 3}
  m_EulerEditorCurves: []
  m_Events: []
--- !u!91 &9100000
AnimatorController:
  m_ObjectHideFlags: 0
  m_PrefabParentObject: {fileID: 0}
  m_PrefabInternal: {fileID: 0}
  m_Name: ResolutionSelector
  serializedVersion: 2
  m_AnimatorParameters:
  - m_Name: Normal
    m_Type: 9
    m_DefaultFloat: 0
    m_DefaultInt: 0
    m_DefaultBool: 0
    m_Controller: {fileID: 9100000}
  - m_Name: Highlighted
    m_Type: 9
    m_DefaultFloat: 0
    m_DefaultInt: 0
    m_DefaultBool: 0
    m_Controller: {fileID: 9100000}
  - m_Name: Pressed
    m_Type: 9
    m_DefaultFloat: 0
    m_DefaultInt: 0
    m_DefaultBool: 0
    m_Controller: {fileID: 9100000}
  - m_Name: Disabled
    m_Type: 9
    m_DefaultFloat: 0
    m_DefaultInt: 0
    m_DefaultBool: 0
    m_Controller: {fileID: 9100000}
  m_AnimatorLayers:
  - serializedVersion: 3
    m_Name: Base Layer
    m_StateMachine: {fileID: 110700000}
    m_Mask: {fileID: 0}
    m_BlendingMode: 0
    m_SyncedLayerIndex: -1
    m_StateMachineMotionSetIndex: 0
    m_DefaultWeight: 0
    m_IKPass: 0
    m_SyncedLayerAffectsTiming: 0
    m_Controller: {fileID: 9100000}
--- !u!1101 &110100000
Transition:
  serializedVersion: 2
  m_ObjectHideFlags: 3
  m_PrefabParentObject: {fileID: 0}
  m_PrefabInternal: {fileID: 0}
  m_Name: 
  m_SrcState: {fileID: 0}
  m_DstState: {fileID: 110200000}
  m_TransitionDuration: .100000001
  m_TransitionOffset: 0
  m_Conditions:
  - m_ConditionMode: 1
    m_ConditionEvent: Normal
    m_EventTreshold: 0
    m_ExitTime: .899999976
  m_Atomic: 1
  m_Solo: 0
  m_Mute: 0
  m_CanTransitionToSelf: 0
--- !u!1101 &110125268
Transition:
  serializedVersion: 2
  m_ObjectHideFlags: 3
  m_PrefabParentObject: {fileID: 0}
  m_PrefabInternal: {fileID: 0}
  m_Name: 
  m_SrcState: {fileID: 0}
  m_DstState: {fileID: 110225268}
  m_TransitionDuration: .100000001
  m_TransitionOffset: 0
  m_Conditions:
  - m_ConditionMode: 1
    m_ConditionEvent: Pressed
    m_EventTreshold: 0
    m_ExitTime: .899999976
  m_Atomic: 1
  m_Solo: 0
  m_Mute: 0
  m_CanTransitionToSelf: 0
--- !u!1101 &110126885
Transition:
  serializedVersion: 2
  m_ObjectHideFlags: 3
  m_PrefabParentObject: {fileID: 0}
  m_PrefabInternal: {fileID: 0}
  m_Name: 
  m_SrcState: {fileID: 0}
  m_DstState: {fileID: 110226885}
  m_TransitionDuration: .100000001
  m_TransitionOffset: 0
  m_Conditions:
  - m_ConditionMode: 1
    m_ConditionEvent: Disabled
    m_EventTreshold: 0
    m_ExitTime: .899999976
  m_Atomic: 1
  m_Solo: 0
  m_Mute: 0
  m_CanTransitionToSelf: 0
--- !u!1101 &110145168
Transition:
  serializedVersion: 2
  m_ObjectHideFlags: 3
  m_PrefabParentObject: {fileID: 0}
  m_PrefabInternal: {fileID: 0}
  m_Name: 
  m_SrcState: {fileID: 0}
  m_DstState: {fileID: 110245168}
  m_TransitionDuration: .100000001
  m_TransitionOffset: 0
  m_Conditions:
  - m_ConditionMode: 1
    m_ConditionEvent: Highlighted
    m_EventTreshold: 0
    m_ExitTime: .899999976
  m_Atomic: 1
  m_Solo: 0
  m_Mute: 0
  m_CanTransitionToSelf: 0
--- !u!1102 &110200000
State:
  m_ObjectHideFlags: 3
  m_PrefabParentObject: {fileID: 0}
  m_PrefabInternal: {fileID: 0}
  m_Name: Normal
  m_Speed: 1
  m_CycleOffset: 0
  m_Motions:
  - {fileID: 7400000}
  m_ParentStateMachine: {fileID: 110700000}
  m_Position: {x: 200, y: 0, z: 0}
  m_IKOnFeet: 0
  m_Mirror: 0
  m_Tag: 
--- !u!1102 &110225268
State:
  m_ObjectHideFlags: 3
  m_PrefabParentObject: {fileID: 0}
  m_PrefabInternal: {fileID: 0}
  m_Name: Pressed
  m_Speed: 1
  m_CycleOffset: 0
  m_Motions:
  - {fileID: 7400004}
  m_ParentStateMachine: {fileID: 110700000}
  m_Position: {x: 270, y: 130, z: 0}
  m_IKOnFeet: 0
  m_Mirror: 0
  m_Tag: 
--- !u!1102 &110226885
State:
  m_ObjectHideFlags: 3
  m_PrefabParentObject: {fileID: 0}
  m_PrefabInternal: {fileID: 0}
  m_Name: Disabled
  m_Speed: 1
  m_CycleOffset: 0
  m_Motions:
  - {fileID: 7400006}
  m_ParentStateMachine: {fileID: 110700000}
  m_Position: {x: 305, y: 195, z: 0}
  m_IKOnFeet: 0
  m_Mirror: 0
  m_Tag: 
--- !u!1102 &110245168
State:
  m_ObjectHideFlags: 3
  m_PrefabParentObject: {fileID: 0}
  m_PrefabInternal: {fileID: 0}
  m_Name: Highlighted
  m_Speed: 1
  m_CycleOffset: 0
  m_Motions:
  - {fileID: 7400002}
  m_ParentStateMachine: {fileID: 110700000}
  m_Position: {x: 235, y: 65, z: 0}
  m_IKOnFeet: 0
  m_Mirror: 0
  m_Tag: 
--- !u!1107 &110700000
StateMachine:
  serializedVersion: 2
  m_ObjectHideFlags: 3
  m_PrefabParentObject: {fileID: 0}
  m_PrefabInternal: {fileID: 0}
  m_Name: Base Layer
  m_DefaultState: {fileID: 110200000}
  m_States:
  - {fileID: 110200000}
  - {fileID: 110245168}
  - {fileID: 110225268}
  - {fileID: 110226885}
  m_ChildStateMachine: []
  m_ChildStateMachinePosition: []
  m_OrderedTransitions:
    data:
      first: {fileID: 0}
      second:
      - {fileID: 110100000}
      - {fileID: 110145168}
      - {fileID: 110125268}
      - {fileID: 110126885}
    data:
      first: {fileID: 110200000}
      second: []
    data:
      first: {fileID: 110245168}
      second: []
    data:
      first: {fileID: 110225268}
      second: []
    data:
      first: {fileID: 110226885}
      second: []
  m_MotionSetCount: 1
  m_AnyStatePosition: {x: 50, y: 20, z: 0}
  m_ParentStateMachinePosition: {x: 800, y: 20, z: 0}
